%YAML 1.1
%TAG !u! tag:unity3d.com,2011:
--- !u!21 &2100000
Material:
  serializedVersion: 6
  m_ObjectHideFlags: 0
  m_CorrespondingSourceObject: {fileID: 0}
  m_PrefabInstance: {fileID: 0}
  m_PrefabAsset: {fileID: 0}
  m_Name: ChipCRv25l
  m_Shader: {fileID: -6465566751694194690, guid: ea21e1bde4b9ed04a803750e00abcbcd,
    type: 3}
  m_ShaderKeywords: 
  m_LightmapFlags: 4
  m_EnableInstancingVariants: 0
  m_DoubleSidedGI: 0
  m_CustomRenderQueue: -1
  stringTagMap: {}
  disabledShaderPasses: []
  m_SavedProperties:
    serializedVersion: 3
    m_TexEnvs:
    - Texture2D_1CFA8528:
        m_Texture: {fileID: 2800000, guid: a6fff8492f818b64dbf1d55b3ca42d0b, type: 3}
        m_Scale: {x: 1, y: 1}
        m_Offset: {x: 0, y: 0}
    - Texture2D_2E92180B:
        m_Texture: {fileID: 2800000, guid: addf2542ebd93904b9df1a3602fb8edb, type: 3}
        m_Scale: {x: 1, y: 1}
        m_Offset: {x: 0, y: 0}
    - Texture2D_45B17184:
        m_Texture: {fileID: 2800000, guid: acb5b4177821154479a4f4bcf50e99c2, type: 3}
        m_Scale: {x: 1, y: 1}
        m_Offset: {x: 0, y: 0}
    - Texture2D_909B0F7C:
        m_Texture: {fileID: 2800000, guid: 8e3c5dc171466624299ac7d4c308af1c, type: 3}
        m_Scale: {x: 1, y: 1}
        m_Offset: {x: 0, y: 0}
    - Texture2D_DA1C5037:
        m_Texture: {fileID: 2800000, guid: b68083f4a9fdf7d48bd76fc4b04e663d, type: 3}
        m_Scale: {x: 1, y: 1}
        m_Offset: {x: 0, y: 0}
    - _BumpMap:
        m_Texture: {fileID: 2800000, guid: addf2542ebd93904b9df1a3602fb8edb, type: 3}
        m_Scale: {x: 1, y: 1}
        m_Offset: {x: 0, y: 0}
    - _DetailAlbedoMap:
        m_Texture: {fileID: 0}
        m_Scale: {x: 1, y: 1}
        m_Offset: {x: 0, y: 0}
    - _DetailMask:
        m_Texture: {fileID: 0}
        m_Scale: {x: 1, y: 1}
        m_Offset: {x: 0, y: 0}
    - _DetailNormalMap:
        m_Texture: {fileID: 0}
        m_Scale: {x: 1, y: 1}
        m_Offset: {x: 0, y: 0}
    - _EmissionMap:
        m_Texture: {fileID: 0}
        m_Scale: {x: 1, y: 1}
        m_Offset: {x: 0, y: 0}
    - _MainTex:
        m_Texture: {fileID: 2800000, guid: acb5b4177821154479a4f4bcf50e99c2, type: 3}
        m_Scale: {x: 1, y: 1}
        m_Offset: {x: 0, y: 0}
    - _MaskTex:
        m_Texture: {fileID: 2800000, guid: 8e3c5dc171466624299ac7d4c308af1c, type: 3}
        m_Scale: {x: 1, y: 1}
        m_Offset: {x: 0, y: 0}
    - _MaskTex2:
        m_Texture: {fileID: 2800000, guid: b68083f4a9fdf7d48bd76fc4b04e663d, type: 3}
        m_Scale: {x: 1, y: 1}
        m_Offset: {x: 0, y: 0}
    - _MetallicGlossMap:
        m_Texture: {fileID: 2800000, guid: a6fff8492f818b64dbf1d55b3ca42d0b, type: 3}
        m_Scale: {x: 1, y: 1}
        m_Offset: {x: 0, y: 0}
    - _OcclusionMap:
        m_Texture: {fileID: 0}
        m_Scale: {x: 1, y: 1}
        m_Offset: {x: 0, y: 0}
    - _ParallaxMap:
        m_Texture: {fileID: 0}
        m_Scale: {x: 1, y: 1}
        m_Offset: {x: 0, y: 0}
    m_Floats:
    - _BumpScale: 1
    - _Cutoff: 0.5
    - _DetailNormalMapScale: 1
    - _DstBlend: 0
    - _GlossMapScale: 1
    - _Glossiness: 0.5
    - _GlossyReflections: 1
    - _Metallic: 0
    - _Mode: 0
    - _OcclusionStrength: 1
    - _Parallax: 0.02
    - _SmoothnessTextureChannel: 0
    - _SpecularHighlights: 1
    - _SrcBlend: 1
    - _UVSec: 0
    - _ZWrite: 1
    m_Colors:
    - Color_2D9DA33E: {r: 0.08627451, g: 0.08627451, b: 0.08627451, a: 0}
    - Color_A1E644D6: {r: 0.6320754, g: 0.002981495, b: 0.14115337, a: 1}
    - Color_EC01EC5B: {r: 0.003921569, g: 0.34901962, b: 0.07058824, a: 0}
    - Color_EE7754DC: {r: 0.007843138, g: 0, b: 0.40000004, a: 0}
    - _BlueMaskColor: {r: 0.007843138, g: 0, b: 0.40000004, a: 1}
    - _Color: {r: 1, g: 1, b: 1, a: 1}
    - _EmissionColor: {r: 0, g: 0, b: 0, a: 1}
    - _GreenMaskColor: {r: 0.003921569, g: 0.34901962, b: 0.07058824, a: 1}
    - _RedMaskColor: {r: 0.08627451, g: 0.08627451, b: 0.08627451, a: 1}
    - _ValueColor: {r: 0.6320754, g: 0.0029814949, b: 0.14115344, a: 1}
